…
```
## Warning: Column `word` joining character vector and factor, coercing into
## character vector
```

```r
# Print the word frequencies
tidy_P36 %>%
  count(word, sort = TRUE)
```

```
## # A tibble: 579 x 2
##    word              n
##    <chr>         <int>
##  1 plataforma      105
##  2 emergência       54
##  3 procedimentos    51
##  4 36               35
##  5 p                35
##  6 acidente         31
##  7 manutenção       31
##  8 análise          30
##  9 operação         29
## 10 conformidades    28
## # ... with 569 more rows
```



```r
# Perform stemming on tidy_animal_farm
stemmed_tidy_P36 <- tidy_P36 %>%
 mutate(word = wordStem(word))

# Print the old word frequencies 
tidy_P36%>%
  count(word, sort = TRUE)
```

```
## # A tibble: 634 x 2
##    word              n
##    <chr>         <int>
##  1 de              322
##  2 a               194
##  3 plataforma      105
##  4 e                98
##  5 da               96
##  6 do               77
##  7 o                69
##  8 não              55
##  9 emergência       54
## 10 procedimentos    51
## # ... with 624 more rows
```

```r
# Print the new word frequencies
stemmed_tidy_P36 %>%
  count(word, sort = TRUE)
```

```
## # A tibble: 596 x 2
##    word             n
##    <chr>        <int>
##  1 de             322
##  2 a              223
##  3 da             126
##  4 plataforma     105
##  5 e               98
##  6 do              95
##  7 o               79
##  8 emergência      57
##  9 não             55
## 10 procedimento    54
## # ... with 586 more rows
```
…
